%YAML 1.1
%TAG !u! tag:unity3d.com,2011:
--- !u!221 &22100000
AnimatorOverrideController:
  m_ObjectHideFlags: 0
  m_PrefabParentObject: {fileID: 0}
  m_PrefabInternal: {fileID: 0}
  m_Name: Gear
  m_Controller: {fileID: 9100000, guid: fc674e451f4f34716bed85f7270d17e3, type: 2}
  m_Clips:
  - m_OriginalClip: {fileID: 7400000, guid: 868848ff4264a495d95fe739e648d2cb, type: 2}
    m_OverrideClip: {fileID: 7400000, guid: 02a16b350b8fa4b40b32fd3b1f0eea8a, type: 2}
